{
  "parent": "block/cube",
  "textures": {
    "down": "maoriresourcepack:blocks/glazed_terracotta_cyan",
    "up": "maoriresourcepack:blocks/glazed_terracotta_green",
    "north": "maoriresourcepack:blocks/glazed_terracotta_gray",
    "east": "maoriresourcepack:blocks/glazed_terracotta_cyan",
    "south": "maoriresourcepack:blocks/glazed_terracotta_gray",
    "west": "maoriresourcepack:blocks/glazed_terracotta_green",
    "particle": "maoriresourcepack:blocks/glazed_terracotta_cyan"
  }
}